Welcome to the tidyverse
…
Filter rows with filter()

Common  mistakes 

#Does not throw error, but does nothing
# what happens is that R checks the condition (year == 2002) 
# and then checks the condition 2007, which doesn't make sense
gapminder %>% 
  filter(year == 2002 | 2007) 

# A tibble: 1,704 × 6
   country     continent  year lifeExp      pop gdpPercap
   <fct>       <fct>     <int>   <dbl>    <int>     <dbl>
 1 Afghanistan Asia       1952    28.8  8425333      779.
 2 Afghanistan Asia       1957    30.3  9240934      821.
 3 Afghanistan Asia       1962    32.0 10267083      853.
 4 Afghanistan Asia       1967    34.0 11537966      836.
 5 Afghanistan Asia       1972    36.1 13079460      740.
 6 Afghanistan Asia       1977    38.4 14880372      786.
 7 Afghanistan Asia       1982    39.9 12881816      978.
 8 Afghanistan Asia       1987    40.8 13867957      852.
 9 Afghanistan Asia       1992    41.7 16317921      649.
10 Afghanistan Asia       1997    41.8 22227415      635.
# ℹ 1,694 more rows
…
  Ozone Solar.R Wind Temp Month Day
1    47      95  7.4   87     9   5
2    16     201  8.0   82     9  20

Arrange rows with arrange()

arrange() changes the order of the rows based on the value of the columns (One or more)

The number of rows does not change

#Arrange/sort by year (oldest to newest - ascending)
gapminder %>% 
  arrange(year)

# A tibble: 1,704 × 6
   country     continent  year lifeExp      pop gdpPercap
   <fct>       <fct>     <int>   <dbl>    <int>     <dbl>
 1 Afghanistan Asia       1952    28.8  8425333      779.
 2 Albania     Europe     1952    55.2  1282697     1601.
 3 Algeria     Africa     1952    43.1  9279525     2449.
 4 Angola      Africa     1952    30.0  4232095     3521.
 5 Argentina   Americas   1952    62.5 17876956     5911.
 6 Australia   Oceania    1952    69.1  8691212    10040.
 7 Austria     Europe     1952    66.8  6927772     6137.
 8 Bahrain     Asia       1952    50.9   120447     9867.
 9 Bangladesh  Asia       1952    37.5 46886859      684.
10 Belgium     Europe     1952    68    8730405     8343.
# ℹ 1,694 more rows

Arrange rows with arrange()

desc() can be used inside arrange() to arrange descending

#Arrange/sort by year (newest to oldest - descending) 
gapminder %>% 
  arrange(desc(year))

# A tibble: 1,704 × 6
   country     continent  year lifeExp       pop gdpPercap
   <fct>       <fct>     <int>   <dbl>     <int>     <dbl>
 1 Afghanistan Asia       2007    43.8  31889923      975.
 2 Albania     Europe     2007    76.4   3600523     5937.
 3 Algeria     Africa     2007    72.3  33333216     6223.
 4 Angola      Africa     2007    42.7  12420476     4797.
 5 Argentina   Americas   2007    75.3  40301927    12779.
 6 Australia   Oceania    2007    81.2  20434176    34435.
 7 Austria     Europe     2007    79.8   8199783    36126.
 8 Bahrain     Asia       2007    75.6    708573    29796.
 9 Bangladesh  Asia       2007    64.1 150448339     1391.
10 Belgium     Europe     2007    79.4  10392226    33693.
# ℹ 1,694 more rows

Arrange rows with arrange()

#Arrange/sort by continent (descending) and then by lifeExp (ascending)
gapminder %>% 
  arrange(desc(continent), lifeExp)

# A tibble: 1,704 × 6
   country     continent  year lifeExp      pop gdpPercap
   <fct>       <fct>     <int>   <dbl>    <int>     <dbl>
 1 Australia   Oceania    1952    69.1  8691212    10040.
 2 New Zealand Oceania    1952    69.4  1994794    10557.
 3 New Zealand Oceania    1957    70.3  2229407    12247.
 4 Australia   Oceania    1957    70.3  9712569    10950.
 5 Australia   Oceania    1962    70.9 10794968    12217.
 6 Australia   Oceania    1967    71.1 11872264    14526.
 7 New Zealand Oceania    1962    71.2  2488550    13176.
 8 New Zealand Oceania    1967    71.5  2728150    14464.
 9 New Zealand Oceania    1972    71.9  2929100    16046.
10 Australia   Oceania    1972    71.9 13177000    16789.
# ℹ 1,694 more rows
…
When arranging a column that has NA values, they ALWAYS appear at the end of the dataset, whether the arrange() is ascending or descending. 
 When arranging by multiple columns, NAs will appear at the end of each group.

Arrange rows with arrange()

Challenge
Solution

Using the gapminder dataset, show a data frame with the most recent year only, ordered by life expectancy (higher to lower)

gapminder %>% 
  filter(year == 2007) %>% 
  arrange(desc(lifeExp))

# A tibble: 142 × 6
   country          continent  year lifeExp       pop gdpPercap
   <fct>            <fct>     <int>   <dbl>     <int>     <dbl>
 1 Japan            Asia       2007    82.6 127467972    31656.
 2 Hong Kong, China Asia       2007    82.2   6980412    39725.
 3 Iceland          Europe     2007    81.8    301931    36181.
 4 Switzerland      Europe     2007    81.7   7554661    37506.
 5 Australia        Oceania    2007    81.2  20434176    34435.
 6 Spain            Europe     2007    80.9  40448191    28821.
 7 Sweden           Europe     2007    80.9   9031088    33860.
 8 Israel           Asia       2007    80.7   6426679    25523.
 9 France           Europe     2007    80.7  61083916    30470.
10 Canada           Americas   2007    80.7  33390141    36319.
# ℹ 132 more rows

Unique values with distinct()

distinct() finds all the unique rows in a dataset.

Can be used for a single column or combination of columns.

#Get a list of unique/distinct years
gapminder %>% 
  distinct(country)

# A tibble: 142 × 1
   country    
   <fct>      
 1 Afghanistan
 2 Albania    
 3 Algeria    
 4 Angola     
 5 Argentina  
 6 Australia  
 7 Austria    
 8 Bahrain    
 9 Bangladesh 
10 Belgium    
# ℹ 132 more rows

Unique values with distinct()

#Get a distinct combination of continent + year
gapminder %>% 
  distinct(continent, year)

# A tibble: 60 × 2
   continent  year
   <fct>     <int>
 1 Asia       1952
 2 Asia       1957
 3 Asia       1962
 4 Asia       1967
 5 Asia       1972
 6 Asia       1977
 7 Asia       1982
 8 Asia       1987
 9 Asia       1992
10 Asia       1997
# ℹ 50 more rows

Unique values with distinct()

What if we want to keep the other columns?

gapminder %>% 
  distinct(continent, year, 
           .keep_all = T)

# A tibble: 60 × 6
   country     continent  year lifeExp      pop gdpPercap
   <fct>       <fct>     <int>   <dbl>    <int>     <dbl>
 1 Afghanistan Asia       1952    28.8  8425333      779.
 2 Afghanistan Asia       1957    30.3  9240934      821.
 3 Afghanistan Asia       1962    32.0 10267083      853.
 4 Afghanistan Asia       1967    34.0 11537966      836.
 5 Afghanistan Asia       1972    36.1 13079460      740.
 6 Afghanistan Asia       1977    38.4 14880372      786.
 7 Afghanistan Asia       1982    39.9 12881816      978.
 8 Afghanistan Asia       1987    40.8 13867957      852.
 9 Afghanistan Asia       1992    41.7 16317921      649.
10 Afghanistan Asia       1997    41.8 22227415      635.
# ℹ 50 more rows

Warning

Note that only one country remains for each continent! 
 The .keep_all argument only keeps the first row of values. 
 If you wanted to know how many countries were available for each continent/year combination, the count() function would work.

Count rows with count()

#How many observations exist for each combination of continent + year?
gapminder %>% 
  count(continent, year) 

# A tibble: 60 × 3
   continent  year     n
   <fct>     <int> <int>
 1 Africa     1952    52
 2 Africa     1957    52
 3 Africa     1962    52
 4 Africa     1967    52
 5 Africa     1972    52
 6 Africa     1977    52
 7 Africa     1982    52
 8 Africa     1987    52
 9 Africa     1992    52
10 Africa     1997    52
# ℹ 50 more rows
…
group_by() divides a dataset into meaningful groups

Doesn’t change the underlying data

Subsequent operations will be performed by each group

Grouped subsets with group_by()

looking closely at the output you see “# Groups: continent [5]”

#Group data by continent
gapminder %>% 
  group_by(continent)

# A tibble: 1,704 × 6
# Groups:   continent [5]
   country     continent  year lifeExp      pop gdpPercap
   <fct>       <fct>     <int>   <dbl>    <int>     <dbl>
 1 Afghanistan Asia       1952    28.8  8425333      779.
 2 Afghanistan Asia       1957    30.3  9240934      821.
 3 Afghanistan Asia       1962    32.0 10267083      853.
 4 Afghanistan Asia       1967    34.0 11537966      836.
 5 Afghanistan Asia       1972    36.1 13079460      740.
 6 Afghanistan Asia       1977    38.4 14880372      786.
 7 Afghanistan Asia       1982    39.9 12881816      978.
 8 Afghanistan Asia       1987    40.8 13867957      852.
 9 Afghanistan Asia       1992    41.7 16317921      649.
10 Afghanistan Asia       1997    41.8 22227415      635.
# ℹ 1,694 more rows

Grouped subsets with group_by()

It’s possible to group by more than one variable simultaneously

#Group data by continent and year
gapminder %>% 
  group_by(continent, year)

# A tibble: 1,704 × 6
# Groups:   continent, year [60]
   country     continent  year lifeExp      pop gdpPercap
   <fct>       <fct>     <int>   <dbl>    <int>     <dbl>
 1 Afghanistan Asia       1952    28.8  8425333      779.
 2 Afghanistan Asia       1957    30.3  9240934      821.
 3 Afghanistan Asia       1962    32.0 10267083      853.
 4 Afghanistan Asia       1967    34.0 11537966      836.
 5 Afghanistan Asia       1972    36.1 13079460      740.
 6 Afghanistan Asia       1977    38.4 14880372      786.
 7 Afghanistan Asia       1982    39.9 12881816      978.
 8 Afghanistan Asia       1987    40.8 13867957      852.
 9 Afghanistan Asia       1992    41.7 16317921      649.
10 Afghanistan Asia       1997    41.8 22227415      635.
# ℹ 1,694 more rows
…
When summarising a grouped data frame, the groups get dropped after the summarise() function call. However, other operations KEEP the groups by default.

Ungrouping grouped data frames

Important

When summarising a grouped data frame, the groups get dropped automatically after the summarise() function call. However, other operations KEEP the groups by default. To explicitly ungroup you can use the ungroup() function

#Create an ID column
gapminder %>% 
  group_by(continent) %>% 
  mutate(id = row_number())

# A tibble: 1,704 × 7
# Groups:   continent [5]
   country     continent  year lifeExp      pop gdpPercap    id
   <fct>       <fct>     <int>   <dbl>    <int>     <dbl> <int>
 1 Afghanistan Asia       1952    28.8  8425333      779.     1
 2 Afghanistan Asia       1957    30.3  9240934      821.     2
 3 Afghanistan Asia       1962    32.0 10267083      853.     3
 4 Afghanistan Asia       1967    34.0 11537966      836.     4
 5 Afghanistan Asia       1972    36.1 13079460      740.     5
 6 Afghanistan Asia       1977    38.4 14880372      786.     6
 7 Afghanistan Asia       1982    39.9 12881816      978.     7
 8 Afghanistan Asia       1987    40.8 13867957      852.     8
 9 Afghanistan Asia       1992    41.7 16317921      649.     9
10 Afghanistan Asia       1997    41.8 22227415      635.    10
# ℹ 1,694 more rows
…
Is this dataset tidy? Why?

Tidying data with tidyr

Most built-in R functions work with vectors.

Tidy data allows R’s vectorized nature to shine.

table3 %>% 
  mutate(death_rate = 
           deaths / population * 1e5)

# A tibble: 84 × 5
    year   age population deaths death_rate
   <int> <dbl>      <int>  <int>      <dbl>
 1  2022     1      79975     15      18.8 
 2  2022     2      85532     15      17.5 
 3  2022     3      88015     22      25.0 
 4  2022     4      88463      9      10.2 
 5  2022     5      87918      6       6.82
 6  2022     6      89039     14      15.7 
 7  2022     7      87372      4       4.58
 8  2022     8      84277     10      11.9 
 9  2022     9      84561      3       3.55
10  2022    10      91241      4       4.38
# ℹ 74 more rows
…
#Alternatively
alt <- indometh_wide %>% 
  pivot_longer(
    cols = starts_with("t"), #All that start with letter "t"
    names_to = "time", 
    values_to = "plasma_conc"
  )

# A tibble: 66 × 3
   Subject time  plasma_conc
   <ord>   <chr>       <dbl>
 1 1       t0.25        1.5 
 2 1       t0.5         0.94
 3 1       t0.75        0.78
 4 1       t1           0.48
 5 1       t1.25        0.37
 6 1       t2           0.19
 7 1       t3           0.12
 8 1       t4           0.11
 9 1       t5           0.08
10 1       t6           0.07
# ℹ 56 more rows
…
