Statistics with R
…
my_lm %>% broom::augment()

# A tibble: 300 × 8
   systolic   age .fitted .resid    .hat .sigma   .cooksd .std.resid
      <dbl> <dbl>   <dbl>  <dbl>   <dbl>  <dbl>     <dbl>      <dbl>
 1      139    35    129.   9.64 0.00455   18.6 0.000618       0.520
 2      116    19    118.  -2.37 0.0112    18.6 0.0000930     -0.128
 3      141    26    123.  17.8  0.00757   18.6 0.00354        0.963
 4      135    31    127.   8.39 0.00567   18.6 0.000584       0.453
 5      148    26    123.  24.8  0.00757   18.6 0.00686        1.34 
 6      136    31    127.   9.39 0.00567   18.6 0.000732       0.507
 7      121    68    152. -31.0  0.00910   18.5 0.0129        -1.68 
 8      129    73    155. -26.5  0.0119    18.6 0.0124        -1.43 
 9      126    59    146. -19.8  0.00542   18.6 0.00312       -1.07 
10      167    80    160.   6.74 0.0168    18.6 0.00114        0.366
# ℹ 290 more rows
…
Mixed effects 

regression

Mixed models with {lme4}

library(lme4)

# Reaction time per day (in milliseconds) for subjects in a sleep deprivation study
sleepstudy %>% as_tibble()

# A tibble: 180 × 3
   Reaction  Days Subject
      <dbl> <dbl> <fct>  
 1     250.     0 308    
 2     259.     1 308    
 3     251.     2 308    
 4     321.     3 308    
 5     357.     4 308    
 6     415.     5 308    
 7     382.     6 308    
 8     290.     7 308    
 9     431.     8 308    
10     466.     9 308    
# ℹ 170 more rows
…
